…
For my next project I wanted to perform a text analysis, and what could be better then analyzing my favorite tv show Doctor Who! Doctor Who is a sci-fi show that comes on BBC, it is also currently the longest running sci-fi. I highly recommend it if you have not already seen it.I would like to take a moment to say that as part of my analysis, I try to understand the characters motivation and might discuss their backstory or how they got to a certain point. With all that in mind, as the infamous Dr.River Song would say, "Spoilers." You have been warned!

Ok let's get down to analyzing some data! To begin I created a function that webscrapes the desired lines for the desired doctor and then creates a dataframe with three columns: Value, speaker, dialogue. The value is the sem-processed script, where each speaker has their own row, the speaker is the one saying the text, and the dialogue is their text. The code for the function can be found in the webscraping\_function.R file. This function requires two arguments: the url where you are getting the specific script and then the doctor whose time period you are scraping. The doctor argument will be placed within the speark column so make sure to enter your text as you would want to see it. As a warning this function might take a few seconds to run.

Webscraping the Transcripts
===========================

``` r
#Get 10th Doctor's Lines
url <- "http://www.chakoteya.net/DoctorWho/episodes11.html"

eleventh <- webscrape_lines(url, "Eleventh:")
```

    ## # A tibble: 193 x 1
    ##    value                                                                  
    ##    <chr>                                                                  
    ##  1 " [Tardis]\r\n"                                                        
    ##  2 [Tardis]                                                               
    ##  3 " (The Tardis is tumbling out of control and going\r\nBang! inside. It…
    ##  4 "[Bedroom]\r\n"                                                        
    ##  5 [Bedroom]                                                              
    ##  6 "(Night time. A pinwheel rattles in the overgrown\r\ngarden of an old …
    ##  7 ""                                                                     
    ##  8 "[Garden]\r\n"                                                         
    ##  9 [Garden]                                                               
    ## 10 "(For only the second time ever, the Tardis doors\r\nopen outwards - t…
    ## # ... with 183 more rows
    ## # A tibble: 106 x 1
    ##    value                                                                  
    ##    <chr>                                                                  
    ##  1 " [Class\r\nroom] "                                                    
    ##  2 "[Class\r\nroom]"                                                      
    ##  3 " (A city is flying through space, stuck on the back\r\nof a giant she…
    ##  4 ""                                                                     
    ##  5 "[By the lift]\r\n"                                                    
    ##  6 [By the lift]                                                          
    ##  7 "MANDY: You got a zero, didn't you? \r\nTIMMY: Yeah? So? \r\nMANDY: Yo…
    ##  8 ""                                                                     
    ##  9 "[Lift]\r\n"                                                           
    ## 10 [Lift]                                                                 
    ## # ... with 96 more rows
    ## # A tibble: 252 x 1
    ##    value                                                                  
    ##    <chr>                                                                  
    ##  1 " [Map\nroom] "                                                        
    ##  2 "[Map\nroom]"                                                          
    ##  3 " (In the War Rooms beneath Whitehall, an air raid\nsiren is wailing. …
    ##  4 ""                                                                     
    ##  5 "[Filing room]\n"                                                      
    ##  6 [Filing room]                                                          
    ##  7 "(The Tardis materialises in a filing room. A buzzer\nsounds in Church…
    ##  8 ""                                                                     
    ##  9 "[Corridor]\n"                                                         
    ## 10 [Corridor]                                                             
    ## # ... with 242 more rows
    ## # A tibble: 225 x 1
    ##    value                                                                  
    ##    <chr>                                                                  
    ##  1 " [Field]\r\n"                                                         
    ##  2 [Field]                                                                
    ##  3 " (A man in a uniform is standing in the middle of a\r\nfield, with a …
    ##  4 ""                                                                     
    ##  5 "[Corridor]\r\n"                                                       
    ##  6 [Corridor]                                                             
    ##  7 "ALISTAIR: Hallucinogenic lipstick. She's here. \r\n(A woman strides a…
    ##  8 ""                                                                     
    ##  9 "[Museum]\r\n"                                                         
    ## 10 [Museum]                                                               
    ## # ... with 215 more rows
    ## # A tibble: 181 x 1
    ##    value                                                                  
    ##    <chr>                                                                  
    ##  1 " [Tunnel]\r\n"                                                        
    ##  2 [Tunnel]                                                               
    ##  3 "DOCTOR: Up. Look up. \r\n(Everyone struggles to their feet on an arti…
    ##  4 ""                                                                     
    ##  5 "[Corridor]\r\n"                                                       
    ##  6 [Corridor]                                                             
    ##  7 "OCTAVIAN [OC]: Okay, men. Go, go, go! \r\n(The Doctor works on a cont…
    ##  8 ""                                                                     
    ##  9 "[Secondary Flight Deck]\r\n"                                          
    ## 10 [Secondary Flight Deck]                                                
    ## # ... with 171 more rows
    ## # A tibble: 213 x 1
    ##    value                                                                  
    ##    <chr>                                                                  
    ##  1 " [Throne\r\nroom] "                                                   
    ##  2 "[Throne\r\nroom]"                                                     
    ##  3 " (Venice, 1580. In a large, otherwise empty\r\nchamber, a woman sits …
    ##  4 ""                                                                     
    ##  5 "[Pub] "                                                               
    ##  6 [Pub]                                                                  
    ##  7 "(Rory is on the phone, trying to make himself heard\r\nabove the nois…
    ##  8 ""                                                                     
    ##  9 "[Amy's bedroom]\r\n"                                                  
    ## 10 [Amy's bedroom]                                                        
    ## # ... with 203 more rows
    ## # A tibble: 124 x 1
    ##    value                                                                  
    ##    <chr>                                                                  
    ##  1 " [Kitchen]\r\n"                                                       
    ##  2 [Kitchen]                                                              
    ##  3 " (In the quiet countryside, a cockerel crows. A\r\nvery heavily pregn…
    ##  4 ""                                                                     
    ##  5 "[Outside the house]\r\n"                                              
    ##  6 [Outside the house]                                                    
    ##  7 "(Long haired Rory returns home on his bicycle.) \r\nAMY [OC]: Rory, i…
    ##  8 ""                                                                     
    ##  9 "[Kitchen]\r\n"                                                        
    ## 10 [Kitchen]                                                              
    ## # ... with 114 more rows
    ## # A tibble: 184 x 1
    ##    value                                                                  
    ##    <chr>                                                                  
    ##  1 " [Cwmtaff]\r\n"                                                       
    ##  2 [Cwmtaff]                                                              
    ##  3 " (South Wales, 2020. An old mining village with\r\nhalf the homes boa…
    ##  4 ""                                                                     
    ##  5 "[Control room]\r\n"                                                   
    ##  6 [Control room]                                                         
    ##  7 "COMPUTER: Approaching stage four target drilling\r\ndepth. Stage four…
    ##  8 ""                                                                     
    ##  9 "[Store room]\r\n"                                                     
    ## 10 [Store room]                                                           
    ## # ... with 174 more rows
    ## # A tibble: 199 x 1
    ##    value                                                                  
    ##    <chr>                                                                  
    ##  1 "ELDANE\r\n[OC]: This is the story of our planet, Earth. Of the day a …
    ##  2 "[City]\r\n"                                                           
    ##  3 [City]                                                                 
    ##  4 "DOCTOR: This place is enormous and deserted. The\r\nmajority of the r…
    ##  5 ""                                                                     
    ##  6 "[Laboratory]\r\n"                                                     
    ##  7 [Laboratory]                                                           
    ##  8 "AMY: Don't you come near me with that. \r\n(The scientist makes an au…
    ##  9 ""                                                                     
    ## 10 "[Tunnel]\r\n"                                                         
    ## # ... with 189 more rows
    ## # A tibble: 144 x 1
    ##    value                                                                  
    ##    <chr>                                                                  
    ##  1 "\r\n(Autumn. Something cuts a swathe through the ripe wheat, scaring …
    ##  2 " [Museé d'Orsay]\r\n"                                                 
    ##  3 [Museé d'Orsay]                                                        
    ##  4 "(Wheatfield with crows is now hanging on a gallery\r\nwall with an ex…
    ##  5 ""                                                                     
    ##  6 "[Alleyway]\r\n"                                                       
    ##  7 [Alleyway]                                                             
    ##  8 "(Night. The Tardis materialises in a narrow alley,\r\nscaring a cat.)…
    ##  9 ""                                                                     
    ## 10 "[Outside the cafe]\r\n"                                               
    ## # ... with 134 more rows
    ## # A tibble: 515 x 1
    ##    value                                                                  
    ##    <chr>                                                                  
    ##  1 " [Aickman\r\nRoad] "                                                  
    ##  2 "[Aickman\r\nRoad]"                                                    
    ##  3 " (The Tardis materialises in a small park across\r\nthe road from gro…
    ##  4 ""                                                                     
    ##  5 "[Tardis]\r\n"                                                         
    ##  6 [Tardis]                                                               
    ##  7 "(The Tardis is shaking, and there is a shower of\r\nsparks nearby.) \…
    ##  8 ""                                                                     
    ##  9 "[Aickman Road]\r\n"                                                   
    ## 10 [Aickman Road]                                                         
    ## # ... with 505 more rows
    ## # A tibble: 271 x 1
    ##    value                                                                  
    ##    <chr>                                                                  
    ##  1 " [France\r\n1890] "                                                   
    ##  2 "[France\r\n1890]"                                                     
    ##  3 " (Night. It is raining. In a bedroom, an\r\nunappreciated artist is h…
    ##  4 ""                                                                     
    ##  5 "[Cabinet War Rooms, London 1941]\r\n"                                 
    ##  6 [Cabinet War Rooms, London 1941]                                       
    ##  7 "(Bracewell brings the picture to the Prime\r\nMinister.) \r\nBRACEWEL…
    ##  8 ""                                                                     
    ##  9 "[Stormcage Containment Facility 5145]\r\n"                            
    ## 10 [Stormcage Containment Facility 5145]                                  
    ## # ... with 261 more rows
    ## # A tibble: 166 x 1
    ##    value                                                                  
    ##    <chr>                                                                  
    ##  1 " [Amy's\r\nbedroom] "                                                 
    ##  2 "[Amy's\r\nbedroom]"                                                   
    ##  3 " (1,894 years later... and one star at least is\r\nstill burning brig…
    ##  4 ""                                                                     
    ##  5 "[Living room]\r\n"                                                    
    ##  6 [Living room]                                                          
    ##  7 "(The nice lady psychiatrist is looking at a\r\npainting of the moon a…
    ##  8 ""                                                                     
    ##  9 "[Outside the house]\r\n"                                              
    ## 10 [Outside the house]                                                    
    ## # ... with 156 more rows
    ## # A tibble: 340 x 1
    ##    value                                                                  
    ##    <chr>                                                                  
    ##  1 " [Starliner]\r\n"                                                     
    ##  2 [Starliner]                                                            
    ##  3 " (Near a planet with a thick cloudy atmosphere and\r\na lovely view o…
    ##  4 ""                                                                     
    ##  5 "[Main room]\r\n"                                                      
    ##  6 [Main room]                                                            
    ##  7 "(Down below the thick cloud layer is a bustling\r\nmetropolis, domina…
    ##  8 ""                                                                     
    ##  9 "[Starliner]\r\n"                                                      
    ## 10 [Starliner]                                                            
    ## # ... with 330 more rows
    ## # A tibble: 6 x 1
    ##   value                                                                   
    ##   <chr>                                                                   
    ## 1 "Part\r\nOne\r\n[Tardis]\r\n(The Doctor whistling whilst working undern…
    ## 2 "Part\r\nOne\r\n[Tardis]"                                               
    ## 3 "Part\r\nOne"                                                           
    ## 4 ""                                                                      
    ## 5 Part Two                                                                
    ## 6 ""                                                                      
    ## # A tibble: 166 x 1
    ##    value                                                                  
    ##    <chr>                                                                  
    ##  1 " In\r\nmemory of Elisabeth Sladen \r\n1948 - 2011 "                   
    ##  2 "In\r\nmemory of Elisabeth Sladen \r\n1948 - 2011"                     
    ##  3 ""                                                                     
    ##  4 " [Palace] "                                                           
    ##  5 [Palace]                                                               
    ##  6 " (The restored Monarch and his guards charge\r\nthrough the building.…
    ##  7 ""                                                                     
    ##  8 "[Kitchen]\r\n"                                                        
    ##  9 [Kitchen]                                                              
    ## 10 "(Amy is reading from a history book while Rory\r\nunpacks the shoppin…
    ## # ... with 156 more rows
    ## # A tibble: 181 x 1
    ##    value                                                                  
    ##    <chr>                                                                  
    ##  1 "[Valley\r\nof the Gods, Utah]\r\n"                                    
    ##  2 "[Valley\r\nof the Gods, Utah]"                                        
    ##  3 "(Three months later - July 1969. \r\nAmy is running for her life from…
    ##  4 ""                                                                     
    ##  5 "[Warehouse memory]\r\n"                                               
    ##  6 [Warehouse memory]                                                     
    ##  7 "(The Doctor is dragging Canton away.) \r\nDOCTOR: Canton. Amy. Amy! \…
    ##  8 ""                                                                     
    ##  9 "[Area 51, Nevada]\r\n"                                                
    ## 10 [Area 51, Nevada]                                                      
    ## # ... with 171 more rows
    ## # A tibble: 132 x 1
    ##    value                                                                  
    ##    <chr>                                                                  
    ##  1 " [On\r\ndeck] "                                                       
    ##  2 "[On\r\ndeck]"                                                         
    ##  3 " (A group of seventeenth century sailors row back\r\nto their ship, b…
    ##  4 ""                                                                     
    ##  5 "[Captain's cabin]\r\n"                                                
    ##  6 [Captain's cabin]                                                      
    ##  7 "(Lots of gold loot lying around.) \r\nBOATSWAIN: He slipped in the bi…
    ##  8 ""                                                                     
    ##  9 "[On deck]\r\n"                                                        
    ## 10 [On deck]                                                              
    ## # ... with 122 more rows
…
